tesis mg
…
##### Proporciones DENTRO de cada género
##### (para hombres: cada proporción se divide por el total de hombres; idem mujeres)

tabla_rotacion_genero <- base_personas %>%
  group_by(genero_lbl, rotacion_total) %>%
  summarise(n = n(), .groups = "drop_last") %>%
  mutate(prop = n / sum(n)) %>%     # <- clave: normaliza por género
  ungroup()

tabla_rotacion_genero %>%
  mutate(prop_pct = percent(prop, accuracy = 0.1)) %>%
  arrange(genero_lbl, rotacion_total)

# A tibble: 29 × 5
   genero_lbl rotacion_total     n    prop prop_pct
   <fct>               <int> <int>   <dbl> <chr>   
 1 Hombre                  0  1356 0.371   37.1%   
 2 Hombre                  1   955 0.261   26.1%   
 3 Hombre                  2   606 0.166   16.6%   
 4 Hombre                  3   322 0.0881  8.8%    
 5 Hombre                  4   211 0.0577  5.8%    
 6 Hombre                  5    94 0.0257  2.6%    
 7 Hombre                  6    42 0.0115  1.1%    
 8 Hombre                  7    40 0.0109  1.1%    
 9 Hombre                  8    14 0.00383 0.4%    
10 Hombre                  9     7 0.00191 0.2%    
# ℹ 19 more rows
…
tabla_destino_gen <- no_ejercen %>%
  mutate(
    genero_lbl = factor(DOC_GENERO,
                        levels = c(1,2),
                        labels = c("Hombre","Mujer"))
  ) %>%
  group_by(genero_lbl, COD_ENS_1,ID_IFP) %>%
  summarise(n = n(), .groups = "drop") %>%
  group_by(genero_lbl) %>%
  mutate(prop_dentro = n / sum(n))

tabla_destino_gen

# A tibble: 196 × 5
# Groups:   genero_lbl [2]
   genero_lbl COD_ENS_1 ID_IFP     n prop_dentro
   <fct>          <dbl>  <dbl> <int>       <dbl>
 1 Hombre             0      1    20     0.00509
 2 Hombre             0      2   118     0.0300 
 3 Hombre             0      3    90     0.0229 
 4 Hombre             0      4   154     0.0392 
 5 Hombre             0      5   371     0.0945 
 6 Hombre             0      6    23     0.00586
 7 Hombre             0      7   137     0.0349 
 8 Hombre             0      8   185     0.0471 
 9 Hombre             0      9    14     0.00357
10 Hombre             0     11     6     0.00153
# ℹ 186 more rows
…
